^C:\USERS\SANDO\SOURCE\REPOS\TOWERDEFENSE\TOWERDEFENSE\MONSTER.CPP
C:\PROGRAM FILES (X86)\MICROSOFT VISUAL STUDIO\2017\PROFESSIONAL\VC\TOOLS\MSVC\14.15.26726\BIN\HOSTX86\X86\1033\CLUI.DLL
C:\WINDOWS\GLOBALIZATION\SORTING\SORTDEFAULT.NLS
C:\WINDOWS\SYSTEM32\TZRES.DLL
C:\USERS\SANDO\SOURCE\REPOS\TOWERDEFENSE\TOWERDEFENSE\MONSTER.H
